{
    "page": 1,
    "total_results": 208,
    "total_pages": 11,
    "results": [
                {
                "vote_count": 1246,
                "id": 351286,
                "video": false,
                "vote_average": 6.7,
                "title": "Jurassic World: Fallen Kingdom",
                "popularity": 291.272164,
                "poster_path": "/c9XxwwhPHdaImA2f1WEfEsbhaFB.jpg",
                "original_language": "en",
                "original_title": "Jurassic World: Fallen Kingdom",
                "genre_ids": [
                              28,
                              12,
                              878
                              ],
                "backdrop_path": "/gBmrsugfWpiXRh13Vo3j0WW55qD.jpg",
                "adult": false,
                "overview": "A volcanic eruption threatens the remaining dinosaurs on the island of Isla Nublar, where the creatures have freely roamed for several years after the demise of an animal theme park known as Jurassic World. Claire Dearing, the former park manager, has now founded the Dinosaur Protection Group, an organization dedicated to protecting the dinosaurs. To help with her cause, Claire has recruited Owen Grady, a former dinosaur trainer who worked at the park, to prevent the extinction of the dinosaurs once again.",
                "release_date": "2018-06-22"
                },
                {
                "vote_count": 460,
                "id": 260513,
                "video": false,
                "vote_average": 7.7,
                "title": "Incredibles 2",
                "popularity": 183.664012,
                "poster_path": "/x1txcDXkcM65gl7w20PwYSxAYah.jpg",
                "original_language": "en",
                "original_title": "Incredibles 2",
                "genre_ids": [
                              28,
                              12,
                              16,
                              10751
                              ],
                "backdrop_path": "/mabuNsGJgRuCTuGqjFkWe1xdu19.jpg",
                "adult": false,
                "overview": "Elastigirl springs into action to save the day, while Mr. Incredible faces his greatest challenge yet – taking care of the problems of his three children.",
                "release_date": "2018-06-15"
                },
                {
                "vote_count": 2683,
                "id": 383498,
                "video": false,
                "vote_average": 7.6,
                "title": "Deadpool 2",
                "popularity": 89.701385,
                "poster_path": "/to0spRl1CMDvyUbOnbb4fTk3VAd.jpg",
                "original_language": "en",
                "original_title": "Deadpool 2",
                "genre_ids": [
                              28,
                              35,
                              878
                              ],
                "backdrop_path": "/3P52oz9HPQWxcwHOwxtyrVV1LKi.jpg",
                "adult": false,
                "overview": "Wisecracking mercenary Deadpool battles the evil and powerful Cable and other bad guys to save a boy's life.",
                "release_date": "2018-05-18"
                },
                {
                "vote_count": 1096,
                "id": 348350,
                "video": false,
                "vote_average": 6.8,
                "title": "Solo: A Star Wars Story",
                "popularity": 69.227249,
                "poster_path": "/4oD6VEccFkorEBTEDXtpLAaz0Rl.jpg",
                "original_language": "en",
                "original_title": "Solo: A Star Wars Story",
                "genre_ids": [
                              28,
                              12,
                              878
                              ],
                "backdrop_path": "/7LZ0K4FsALrt7OeNIGOVLNuKQRU.jpg",
                "adult": false,
                "overview": "Through a series of daring escapades deep within a dark and dangerous criminal underworld, Han Solo meets his mighty future copilot Chewbacca and encounters the notorious gambler Lando Calrissian.",
                "release_date": "2018-05-25"
                },
                {
                "vote_count": 33,
                "id": 400535,
                "video": false,
                "vote_average": 6.7,
                "title": "Sicario: Day of the Soldado",
                "popularity": 61.266664,
                "poster_path": "/OdD7A0LgLXPjqzmfcEl9sTYVPo.jpg",
                "original_language": "en",
                "original_title": "Sicario: Day of the Soldado",
                "genre_ids": [
                              28,
                              80,
                              18,
                              53
                              ],
                "backdrop_path": "/uDRb7zVqtqMtXS8bnqYJ17SlhK8.jpg",
                "adult": false,
                "overview": "FBI agent Matt Graver teams up with operative Alejandro Gillick to prevent Mexican drug cartels from smuggling terrorists across the U.S. border.",
                "release_date": "2018-06-29"
                },
                {
                "vote_count": 381,
                "id": 402900,
                "video": false,
                "vote_average": 6.8,
                "title": "Ocean's 8",
                "popularity": 48.567221,
                "poster_path": "/MvYpKlpFukTivnlBhizGbkAe3v.jpg",
                "original_language": "en",
                "original_title": "Ocean's 8",
                "genre_ids": [
                              80,
                              35,
                              28,
                              53
                              ],
                "backdrop_path": "/zBIfBeStaDdDdhBrSx8InhgFUVa.jpg",
                "adult": false,
                "overview": "Debbie Ocean, a criminal mastermind, gathers a crew of seven other female thieves to pull off the heist of the century at New York's annual Met Gala.",
                "release_date": "2018-06-08"
                },
                {
                "vote_count": 63,
                "id": 385332,
                "video": false,
                "vote_average": 5.7,
                "title": "Terminal",
                "popularity": 42.527765,
                "poster_path": "/xi7pA3lL6Wb78p6Y6PgWoHDMjrM.jpg",
                "original_language": "en",
                "original_title": "Terminal",
                "genre_ids": [
                              53,
                              18,
                              80
                              ],
                "backdrop_path": "/bwvxvrHH3nTbcwpEcJhA72kkI94.jpg",
                "adult": false,
                "overview": "In the dark heart of a sprawling, anonymous city, two assassins carry out a sinister mission, a teacher battles a fatal illness, and an enigmatic janitor and a curious waitress lead dangerous double lives.  Murderous consequences unravel in the dead of night, as their lives intertwine at the hands of a mysterious criminal mastermind who is hell-bent on revenge.",
                "release_date": "2018-05-11"
                },
                {
                "vote_count": 254,
                "id": 493922,
                "video": false,
                "vote_average": 7,
                "title": "Hereditary",
                "popularity": 36.524843,
                "poster_path": "/4GFPuL14eXi66V96xBWY73Y9PfR.jpg",
                "original_language": "en",
                "original_title": "Hereditary",
                "genre_ids": [
                              27,
                              18,
                              9648,
                              53
                              ],
                "backdrop_path": "/yVWiOMpzf7gullGvug83r7gMdha.jpg",
                "adult": false,
                "overview": "After their reclusive grandmother passes away, the Graham family begins to unravel cryptic and increasingly terrifying secrets about their ancestry. The more they discover, the more they find themselves trying to outrun the sinister fate they seem to have inherited.",
                "release_date": "2018-06-08"
                },
                {
                "vote_count": 49,
                "id": 455980,
                "video": false,
                "vote_average": 7.1,
                "title": "Tag",
                "popularity": 29.661862,
                "poster_path": "/eXXpuW2xaq5Aen9N5prFlARVIvr.jpg",
                "original_language": "en",
                "original_title": "Tag",
                "genre_ids": [
                              35
                              ],
                "backdrop_path": "/yRXzrwLfB5tDTIA3lSU9S3N9RUK.jpg",
                "adult": false,
                "overview": "For one month every year, five highly competitive friends hit the ground running in a no-holds-barred game of tag they’ve been playing since the first grade. This year, the game coincides with the wedding of their only undefeated player, which should finally make him an easy target. But he knows they’re coming...and he’s ready.",
                "release_date": "2018-06-15"
                },
                {
                "vote_count": 105,
                "id": 476299,
                "video": false,
                "vote_average": 7.5,
                "title": "Ghostland",
                "popularity": 27.220057,
                "poster_path": "/48GWpOhl1s5hUciV7pvVMHkJnvv.jpg",
                "original_language": "en",
                "original_title": "Ghostland",
                "genre_ids": [
                              27,
                              9648,
                              53,
                              18
                              ],
                "backdrop_path": "/gl3RKxaM65gyrvRoG3MffTYBoo5.jpg",
                "adult": false,
                "overview": "A mother of two inherits a home from her aunt. On the first night in the new home she is confronted with murderous intruders and fights for her daughters' lives. Sixteen years later the daughters reunite at the house, and that is when things get strange...",
                "release_date": "2018-06-22"
                },
                {
                "vote_count": 82,
                "id": 399796,
                "video": false,
                "vote_average": 6,
                "title": "Life of the Party",
                "popularity": 24.401772,
                "poster_path": "/U9VikkobAGLh5jcw81T1RLnqMj.jpg",
                "original_language": "en",
                "original_title": "Life of the Party",
                "genre_ids": [
                              35
                              ],
                "backdrop_path": "/k1Aks1n2zF5Nl1rQH0ZuguDkgna.jpg",
                "adult": false,
                "overview": "Dumped by her husband, longtime housewife Deanna turns regret into reset by going back to college. Winding up at the same school as her daughter, Deanna plunges headlong into the campus experience -- embracing the fun, the freedom and the frat boys.",
                "release_date": "2018-05-11"
                },
                {
                "vote_count": 0,
                "id": 526224,
                "video": false,
                "vote_average": 0,
                "title": "Big Legend",
                "popularity": 21.507424,
                "poster_path": "/7CeZPerr5yzFM9nBcUJWdfVGRk9.jpg",
                "original_language": "en",
                "original_title": "Big Legend",
                "genre_ids": [
                              28,
                              27
                              ],
                "backdrop_path": "/qgXQbRRehFi5Dxd9jW9SE6oXqC8.jpg",
                "adult": false,
                "overview": "An ex-soldier ventures into the Pacific Northwest to uncover the truth behind his fiance's disappearance.",
                "release_date": "2018-07-01"
                },
                {
                "vote_count": 5,
                "id": 474335,
                "video": false,
                "vote_average": 7,
                "title": "Uncle Drew",
                "popularity": 20.33593,
                "poster_path": "/9lCNsfc1OEDNceGJTjfE0kBknEW.jpg",
                "original_language": "en",
                "original_title": "Uncle Drew",
                "genre_ids": [
                              35
                              ],
                "backdrop_path": "/604nkQ0s7ND7nrQorF0v9rSDpdf.jpg",
                "adult": false,
                "overview": "Uncle Drew recruits a squad of older basketball players to return to the court to compete in a tournament.",
                "release_date": "2018-06-29"
                },
                {
                "vote_count": 2,
                "id": 396373,
                "video": false,
                "vote_average": 0,
                "title": "Woman Walks Ahead",
                "popularity": 20.074282,
                "poster_path": "/qI5NcQHR0nsykPqlG2qnfFyMgW6.jpg",
                "original_language": "en",
                "original_title": "Woman Walks Ahead",
                "genre_ids": [
                              18,
                              36,
                              37
                              ],
                "backdrop_path": "/krBzcb8PAhdkrcqgGS1XrxhnQlT.jpg",
                "adult": false,
                "overview": "Caroline Weldon moves to Dakota in the 19th century and tries to help the Sioux chieftain Sitting Bull keep the land for his people.",
                "release_date": "2018-06-29"
                },
                {
                "vote_count": 18,
                "id": 339103,
                "video": false,
                "vote_average": 7.6,
                "title": "Gotti",
                "popularity": 19.392829,
                "poster_path": "/fKzZSNO9VI3kAH9jpKlKsj9MLM0.jpg",
                "original_language": "en",
                "original_title": "Gotti",
                "genre_ids": [
                              80,
                              18,
                              36
                              ],
                "backdrop_path": "/yttjD5YVSW4E1pdj2Ea3zQjlw1P.jpg",
                "adult": false,
                "overview": "John Gotti rises to the top of the New York underworld to become the boss of the Gambino crime family. His life takes a tumultuous turn as he faces tragedy, multiple trials and a prison sentence.",
                "release_date": "2018-06-15"
                },
                {
                "vote_count": 9,
                "id": 459258,
                "video": false,
                "vote_average": 4.7,
                "title": "Distorted",
                "popularity": 17.358408,
                "poster_path": "/tMDsmJZ9tGB5SFabeTpu6nQ4gLm.jpg",
                "original_language": "en",
                "original_title": "Distorted",
                "genre_ids": [
                              28,
                              9648,
                              53
                              ],
                "backdrop_path": "/prfgGRUhTdX2a0mPLRapNkdUiXv.jpg",
                "adult": false,
                "overview": "A married couple suspect that the 'smart apartments' in their high tech residence are being used by its owner for sinister reasons.",
                "release_date": "2018-06-22"
                },
                {
                "vote_count": 2,
                "id": 443463,
                "video": false,
                "vote_average": 0,
                "title": "Leave No Trace",
                "popularity": 17.315612,
                "poster_path": "/awGdHLQdPARAWyiT4hzu1ZFdsHO.jpg",
                "original_language": "en",
                "original_title": "Leave No Trace",
                "genre_ids": [
                              18
                              ],
                "backdrop_path": "/c5GHB444LQShWnO29ulpFMLo4Am.jpg",
                "adult": false,
                "overview": "A father and daughter live a perfect but mysterious existence in Forest Park, a beautiful nature reserve near Portland, Oregon, rarely making contact with the world. But when a small mistake tips them off to authorities, they are sent on an increasingly erratic journey in search of a place to call their own.",
                "release_date": "2018-06-29"
                },
                {
                "vote_count": 19,
                "id": 500919,
                "video": false,
                "vote_average": 5.7,
                "title": "211",
                "popularity": 16.726309,
                "poster_path": "/81RColr4rau6DZ7z9eMsksokcfk.jpg",
                "original_language": "en",
                "original_title": "211",
                "genre_ids": [
                              28,
                              18
                              ],
                "backdrop_path": "/7eTWQb475pM9H3NEOiUzGYASEx0.jpg",
                "adult": false,
                "overview": "Inspired by one of the longest and bloodiest real-life events in police history, Officer Mike Chandler and a young civilian passenger find themselves under-prepared and outgunned when fate puts them squarely in the crosshairs of a daring bank heist in progress by a fearless team of highly-trained and heavily-armed men.",
                "release_date": "2018-06-08"
                },
                {
                "vote_count": 49,
                "id": 525102,
                "video": false,
                "vote_average": 3.7,
                "title": "Girl Lost",
                "popularity": 16.361898,
                "poster_path": "/n3PDMPyFG04bcXUHHhRIwWd9cx1.jpg",
                "original_language": "en",
                "original_title": "Girl Lost",
                "genre_ids": [
                              18
                              ],
                "backdrop_path": "/j3FnUedjz0NHYFfZ62u9WsBU0wy.jpg",
                "adult": false,
                "overview": "Girl Lost tackles the issue of underage prostitution as told through the eyes of a wayward teen. Groomed by her own mother to work in the underbelly of Los Angeles, the young girl struggles to survive in this dark world.",
                "release_date": "2018-05-01"
                },
                {
                "vote_count": 29,
                "id": 411135,
                "video": false,
                "vote_average": 5.1,
                "title": "Future World",
                "popularity": 16.355858,
                "poster_path": "/297jGjtWbi2sczPwSOiLbBc6xvj.jpg",
                "original_language": "en",
                "original_title": "Future World",
                "genre_ids": [
                              878
                              ],
                "backdrop_path": "/g29nhwmOiYElKW27hzohK6nSwpC.jpg",
                "adult": false,
                "overview": "A young boy searches a future world wasteland for a rumored cure for his dying mother.",
                "release_date": "2018-05-25"
                }
    ]
}
